{
  "id": "53371910-fdff-4c89-8e05-ee0608dc5f45",
  "name": "Send template email to ellis.hudson@mediaworks.co.uk",
  "form": "767267c4-d309-4519-af4e-06612f59a16a",
  "active": true,
  "workflowTypeId": "17c61629-d984-4e86-b43b-a8407b3efea9",
  "executesOn": "Submitted",
  "settings": {
    "Email": "ellis.hudson@mediaworks.co.uk",
    "SenderEmail": "",
    "Subject": "The Form '{form_name}' was submitted",
    "RazorViewFilePath": "Forms/Emails/Example-Template.cshtml",
    "Attachment": ""
  },
  "sortOrder": 0
}